INDEX VERSION 1.129+D:\~User Data\Projects\SchoolWork\Term3\3760 - Algorithm Analysis and Deisgn\Labs\Lab4\.metadata\.plugins\org.eclipse.jdt.core
1075794691.index
4184201189.index
2133282975.index
2637943071.index
808374113.index
471236001.index
618723895.index
414978335.index
3407430047.index
3580456661.index
351221734.index
1644702904.index
2855899100.index
985286902.index
3417200662.index
2019903893.index
781808.index
2800558102.index
2809250744.index
