^E:\~USERS\PROJECTS\SCHOOL\SCHOOLWORK\TERM3\PROGRAMMINGWINDOWS\LABS\LAB1\LAB1\SOURCE.CPP
E:\~USERS\PROJECTS\SCHOOL\SCHOOLWORK\TERM3\PROGRAMMINGWINDOWS\LABS\LAB1\LAB1\DEBUG\VC140.PDB
E:\~USERS\PROJECTS\SCHOOL\SCHOOLWORK\TERM3\PROGRAMMINGWINDOWS\LABS\LAB1\LAB1\DEBUG\VC140.IDB
