^E:\~USERS\PROJECTS\SCHOOL\SCHOOLWORK\TERM3\PROGRAMMINGWINDOWS\LABS\LAB1\LAB1\DEBUG\SOURCE.OBJ
E:\~USERS\PROJECTS\SCHOOL\SCHOOLWORK\TERM3\PROGRAMMINGWINDOWS\LABS\LAB1\DEBUG\LAB1.ILK
E:\~USERS\PROJECTS\SCHOOL\SCHOOLWORK\TERM3\PROGRAMMINGWINDOWS\LABS\LAB1\DEBUG\LAB1.EXE
E:\~USERS\PROJECTS\SCHOOL\SCHOOLWORK\TERM3\PROGRAMMINGWINDOWS\LABS\LAB1\DEBUG\LAB1.PDB
